[
  {
    "version":"0.2.7",
    "updateNote":[
      "base"
    ],
    "download":[
      {
        "title":"android-正式版",
        "time":"2018/06/22 11:20:00",
        "url":"d8e2a7dd-46bf-4264-96f6-aba6708300cd"
      }
    ]
  }
]